{
    "soldier_actions" : 2,
    "mastodonte_HP" : 200,
    "mastodonte_dodge" : 0,
    "mastodonte_crit" : 6,
    "shinobi_HP" : 75,
    "shinobi_dodge" : 15,
    "shinobi_crit" : 12,
    "savon_HP" : 125,
    "savon_dodge" : 8,
    "savon_crit" : 5,
    "radx_HP" : 100,
    "radx_dodge" : 10,
    "radx_crit" : 10,
    "cyborg_HP" : 150,
    "cyborg_dodge" : 6,
    "cyborg_crit" : 7,
    "yaka_HP" : 80,
    "yaka_dodge" : 10,
    "yaka_crit" : 11,
    "fire_slash_cooldown" : 1,
    "FireSlashAction_Dégâts d'attaque" : 60,
    "aimbot_accuracy" : 97,
    "aimbot_cooldown" : 0,
    "AimBotAction_Dégâts minimum" : 20,
    "human_shield_cooldown" : 1,
    "HumanShieldAction_Pourcentage redirigé" : 80,
    "flash_cooldown" : 2,
    "FlashAction_Chance d'aveugler" : 50,
    "FlashAction_Précision réduite" : 60,
    "yaka_accuracy" : 87,
    "yaka_cooldown" : 1,
    "YakaAction_Dégâts minimum" : 10,
    "electric_punch_cooldown" : 0,
    "CyborgPunchAction_Dégâts" : 25,
    "intimidate_cooldown" : 1,
    "CyborgIntimidateAction_Réduction" : 30,
    "particules_affaiblissantes_cooldown" : 1,
    "WeakeningRayAction_Pourcentage d'affaiblissement" : 50,
    "gamma_cooldown" : 0,
    "GammaShootAction_Dégâts d'attaque" : 10,
    "GammaShootAction_Dégâts radioactifs" : 15,
    "pluie_balles_cooldown" : 0,
    "BulletFlurryAction_Dégâts" : 10,
    "tirer_cooldown" : 0,
    "ShootAction_Dégâts" : 40,
    "slash_cooldown" : 0,
    "SlashAction_Dégâts" : 40,
    "taillade_cooldown" : 0,
    "BleedingSlashAction_Dégâts d'attaque" : 30,
    "BleedingSlashAction_Dégâts de saignement" : 10,
    "tir_groupe_cooldown" : 1,
    "FocusedShotAction_Dégâts" : 5,
    "fire_wave_cooldown" : 2,
    "CyborgAoEAction_Dégâts" : 10,
    "heal_spray_cooldown" : 1,
    "HealSprayAction_Soins minimum" : 40,
    "zap_cooldown" : 2,
    "ZapAction_Dégâts" : 25,
    "grenade_cooldown" : 1,
    "boss3_hp" : 300,
    "boss3_dodge" : 12,
    "boss3_crit" : 10,
    "boss3_atk1_min" : 25,
    "boss3_atk1_max" : 30,
    "boss3_atk1_accuracy" : 88,
    "boss3_zap_cooldown" : 1,
    "boss3_zap_min" : 7,
    "boss3_zap_max" : 12,
    "boss3_zap_accuracy" : 95,
    "fury_action_cooldown" : 3,
    "adrenaline_buff_bonus" : 5,
    "vitality_buff_bonus" : 7,
    "medecine_buff_bonus" : 4,
    "elemental_buff_bonus" : 5,
    "temerite_buff_bonus" : 8,
    "brutality_buff_bonus" : 2,
    "enemy1_hp" : 130,
    "enemy1_dodge" : 5,
    "enemy1_crit" : 12,
    "enemy1_accuracy" : 85,
    "enemy1_shoot_damage" : 20,
    "fire_shoot_cooldown" : 2,
    "enemy1_fire_shot_damage" : 40,
    "enemy1_fire_shot_accuracy" : 80,
    "ecorcheur_hp" : 70,
    "ecorcheur_dodge" : 10,
    "ecorcheur_damage" : 15,
    "death_scream_cooldown" : 1,
    "sentinel_hp" : 200,
    "sentinel_dodge" : 12,
    "sentinel_crit" : 10,
    "sentinel_armor" : 10,
    "sentinel_accuracy" : 95,
    "sentinel_shoot_damage" : 20,
    "sentinel_zap_damage" : 10,
    "crit_damage_multiplier" : 1.75,
    "lucioles_accuracy" : 90,
    "NanomachineAction_Chance d'irradier" : 33,
    "NanomachineAction_Malus de précision" : 25,
    "lucioles_cooldown" : 0,
    "enemy2_hp" : 90,
    "enemy2_dodge" : 8,
    "enemy2_crit" : 8,
    "enemy2_shoot_accuracy" : 90,
    "enemy2_shoot_damage" : 15,
    "enemy2_gamma_accuracy" : 80,
    "resistance_multiplier" : 0.4,
    "boss2_hp" : 150,
    "boss2_dodge" : 0,
    "boss2_crit" : 11,
    "boss2_gatling_min" : 13,
    "boss2_gatling_max" : 17,
    "boss2_gatling_accuracy" : 80,
    "boss2_zap_accuracy" : 92,
    "boss2_zap_damage_min" : 10,
    "boss2_zap_damage_max" : 15,
    "commandant_hp" : 80,
    "commandant_dodge" : 15,
    "commandant_crit" : 0,
    "commandant_armor" : 0,
    "warcry_action_cooldown" : 1,
    "reinforcements_action_cooldown" : 2,
    "protector_hp" : 200,
    "protector_dodge" : 0,
    "protector_crit" : 2,
    "protector_armor" : 0,
    "protector_accuracy" : 75,
    "protector_atk_damage" : 20,
    "protector_action_cooldown" : 1,
    "GrenadeAction_Dégâts" : 30,
    "vulnerability_multiplier" : 0.4,
    "boss1_hp" : 300,
    "boss1_dodge" : 4,
    "boss1_crit" : 6,
    "boss1_damage" : 35,
    "accuracy_damage" : 90,
    "marquer_cooldown" : 1,
}
